…
## # A tibble: 1 × 6
##   sg_putt sg_arg sg_app sg_ott sg_t2g sg_total
##     <dbl>  <dbl>  <dbl>  <dbl>  <dbl>    <dbl>
## 1    1.76  0.325  0.963  0.685   1.97     3.73

Northern Trust Data

Here I filtered out the tournament the “Northern Trust” from the main data frame. Then I only selected the winners so I could gain some insight about what their average metrics. The metrics that were the most important for winning the tournament were strokes gained total, strokes gained tee to green, and strokes gained approach.

north_trust <- pga_data[pga_data$`tournament name` %in% c("Northern Trust Open", "The Northern Trust"),]
drop_na(north_trust) 

## # A tibble: 478 × 34
##    Player_initial_last `tournament id` `player id` hole_par strokes hole_DKP
##    <chr>                         <dbl>       <dbl>    <dbl>   <dbl>    <dbl>
##  1 A. Ancer                  401243404        9261      284     280     74  
##  2 A. Lahiri                 401243404        4989      284     279     68.5
##  3 A. Noren                  401243404        3832      284     269     85.5
##  4 A. Putnam                 401243404        5502      284     279     68.5
##  5 A. Schenk                 401243404       10372      284     276     72  
##  6 A. Wise                   401243404       10577      284     274     79.5
##  7 B. DeChambeau             401243404       10046      284     276     88  
##  8 B. Harman                 401243404        1225      284     287     59.5
##  9 B. Horschel               401243404        1651      284     276     77  
## 10 B. Koepka                 401243404        6798      284     276     76  
## # … with 468 more rows, and 28 more variables: hole_FDP <dbl>, hole_SDP <dbl>,
## #   streak_DKP <dbl>, streak_FDP <dbl>, streak_SDP <dbl>, n_rounds <dbl>,
## #   made_cut <dbl>, pos <dbl>, finish_DKP <dbl>, finish_FDP <dbl>,
## #   finish_SDP <dbl>, total_DKP <dbl>, total_FDP <dbl>, total_SDP <dbl>,
## #   player <chr>, tournament name <chr>, course <chr>, date <date>,
## #   purse <dbl>, season <dbl>, no_cut <dbl>, Finish <chr>, sg_putt <dbl>,
## #   sg_arg <dbl>, sg_app <dbl>, sg_ott <dbl>, sg_t2g <dbl>, sg_total <dbl>
…
